{
  "project_info": {
    "project_number": "523481604887",
    "firebase_url": "https://smpark-267b1.firebaseio.com",
    "project_id": "smpark-267b1",
    "storage_bucket": "smpark-267b1.appspot.com"
  },
  "client": [
    {
      "client_info": {
        "mobilesdk_app_id": "1:523481604887:android:c1d9db6a7766bb6f4acd52",
        "android_client_info": {
          "package_name": "com.example.projectadmin"
        }
      },
      "oauth_client": [
        {
          "client_id": "523481604887-7t94ujibitp2ru9g494v0p6d2e8g9lpq.apps.googleusercontent.com",
          "client_type": 1,
          "android_info": {
            "package_name": "com.example.projectadmin",
            "certificate_hash": "6aa0f29d3f9325ea4bdea935308a79bd95d3fda6"
          }
        },
        {
          "client_id": "523481604887-hqobionigspc48r0mmrff0tvog0pr2dd.apps.googleusercontent.com",
          "client_type": 3
        }
      ],
      "api_key": [
        {
          "current_key": "AIzaSyA_q0pddWQB-pwqHzuk78mbIZnz9Fe7pp8"
        }
      ],
      "services": {
        "appinvite_service": {
          "other_platform_oauth_client": [
            {
              "client_id": "523481604887-hqobionigspc48r0mmrff0tvog0pr2dd.apps.googleusercontent.com",
              "client_type": 3
            }
          ]
        }
      }
    },
    {
      "client_info": {
        "mobilesdk_app_id": "1:523481604887:android:59fbb25bc81fa6074acd52",
        "android_client_info": {
          "package_name": "com.example.projectapp"
        }
      },
      "oauth_client": [
        {
          "client_id": "523481604887-hqobionigspc48r0mmrff0tvog0pr2dd.apps.googleusercontent.com",
          "client_type": 3
        }
      ],
      "api_key": [
        {
          "current_key": "AIzaSyA_q0pddWQB-pwqHzuk78mbIZnz9Fe7pp8"
        }
      ],
      "services": {
        "appinvite_service": {
          "other_platform_oauth_client": [
            {
              "client_id": "523481604887-hqobionigspc48r0mmrff0tvog0pr2dd.apps.googleusercontent.com",
              "client_type": 3
            }
          ]
        }
      }
    }
  ],
  "configuration_version": "1"
}